<svg xmlns="http://www.w3.org/2000/svg" xmlns:xlink="http://www.w3.org/1999/xlink" width="360" height="122.12" viewBox="0 0 360 122.12">
  <defs>
    <clipPath id="clip-path">
      <rect id="Rectangle_3435" data-name="Rectangle 3435" width="360" height="122.12" transform="translate(2487 40)" fill="#fff"/>
    </clipPath>
    <linearGradient id="linear-gradient" x1="0.131" y1="0.542" x2="1" y2="0.5" gradientUnits="objectBoundingBox">
      <stop offset="0" stop-color="#bde3e4" stop-opacity="0"/>
      <stop offset="1" stop-color="#649d9f"/>
    </linearGradient>
    <linearGradient id="linear-gradient-2" x1="0.869" y1="0.542" x2="0" xlink:href="#linear-gradient"/>
  </defs>
  <g id="Mask_Group_118" data-name="Mask Group 118" transform="translate(-2487 -40)" clip-path="url(#clip-path)">
    <g id="Group_3648" data-name="Group 3648">
      <path id="Path_6274" data-name="Path 6274" d="M1.863,0H180.4V63.124s-41.43-9.812-119.1-10.322-59.431-.051-59.431-.051Z" transform="translate(2667 99)" fill="#696969" opacity="0.15"/>
      <path id="Path_6433" data-name="Path 6433" d="M178.533,0H0V63.124S41.43,53.311,119.1,52.8s59.431-.051,59.431-.051Z" transform="translate(2487 99)" fill="#696969" opacity="0.15"/>
      <path id="Path_2766" data-name="Path 2766" d="M8,0H368V112.925H8Z" transform="translate(2479 40)" fill="#bde3e4"/>
      <path id="Path_6272" data-name="Path 6272" d="M0,0V113" transform="translate(2727.5 40)" fill="none" stroke="#c7eced" stroke-width="1"/>
      <path id="Path_6435" data-name="Path 6435" d="M0,0V113" transform="translate(2606.5 40)" fill="none" stroke="#c7eced" stroke-width="1"/>
      <path id="Path_6271" data-name="Path 6271" d="M0,0V113" transform="translate(2726.5 40)" fill="none" stroke="#a2d2d3" stroke-width="1"/>
      <rect id="Rectangle_3432" data-name="Rectangle 3432" width="120" height="113" transform="translate(2727 40)" opacity="0.5" fill="url(#linear-gradient)"/>
      <path id="Path_6436" data-name="Path 6436" d="M0,0V113" transform="translate(2607.5 40)" fill="none" stroke="#a2d2d3" stroke-width="1"/>
      <rect id="Rectangle_3397" data-name="Rectangle 3397" width="120" height="113" transform="translate(2607 40)" fill="#a2cfd0" opacity="0.2"/>
      <rect id="Rectangle_3415" data-name="Rectangle 3415" width="120" height="113" transform="translate(2487 40)" opacity="0.5" fill="url(#linear-gradient-2)"/>
    </g>
  </g>
</svg>
