<svg xmlns="http://www.w3.org/2000/svg" xmlns:xlink="http://www.w3.org/1999/xlink" width="1230" height="67.34" viewBox="0 0 1230 67.34">
  <defs>
    <clipPath id="clip-path">
      <rect id="Rectangle_3434" data-name="Rectangle 3434" width="1230" height="67.34" transform="translate(6889 9)" fill="#fff" stroke="#707070" stroke-width="1"/>
    </clipPath>
    <linearGradient id="linear-gradient" x1="0.131" y1="0.542" x2="1" y2="0.5" gradientUnits="objectBoundingBox">
      <stop offset="0" stop-color="#bde3e4" stop-opacity="0"/>
      <stop offset="1" stop-color="#649d9f"/>
    </linearGradient>
    <linearGradient id="linear-gradient-2" x1="0.869" y1="0.542" x2="0" xlink:href="#linear-gradient"/>
  </defs>
  <g id="Mask_Group_117" data-name="Mask Group 117" transform="translate(-6889 -9)" clip-path="url(#clip-path)">
    <g id="Group_3647" data-name="Group 3647" transform="translate(6821 -209)">
      <path id="Path_6268" data-name="Path 6268" d="M613,0H0V65.336S142.252,55.18,408.941,54.652,613,54.6,613,54.6Z" transform="translate(69 220)" fill="#696969" opacity="0.15"/>
      <path id="Path_6274" data-name="Path 6274" d="M6.4,0h613V65.336S477.145,55.18,210.455,54.652,6.4,54.6,6.4,54.6Z" transform="translate(679 220)" fill="#696969" opacity="0.15"/>
      <rect id="Rectangle_3396" data-name="Rectangle 3396" width="1230" height="59" transform="translate(68 218)" fill="#bde3e4"/>
      <rect id="Rectangle_3397" data-name="Rectangle 3397" width="411" height="59" transform="translate(477 218)" fill="#a2cfd0" opacity="0.6"/>
      <rect id="Rectangle_3417" data-name="Rectangle 3417" width="1230" height="30" transform="translate(68 247)" fill="#4e9a9a" opacity="0.123"/>
      <rect id="Rectangle_3418" data-name="Rectangle 3418" width="473" height="59" transform="translate(825 218)" opacity="0.5" fill="url(#linear-gradient)"/>
      <rect id="Rectangle_3415" data-name="Rectangle 3415" width="473" height="59" transform="translate(68 218)" opacity="0.5" fill="url(#linear-gradient-2)"/>
      <path id="Path_6269" data-name="Path 6269" d="M0,0V59" transform="translate(477.5 218)" fill="none" stroke="#c7eced" stroke-width="1.5"/>
      <path id="Path_6272" data-name="Path 6272" d="M0,0V59" transform="translate(887.5 218)" fill="none" stroke="#c7eced" stroke-width="1.5"/>
      <path id="Path_6270" data-name="Path 6270" d="M0,0V59" transform="translate(478.5 218)" fill="none" stroke="#a2d2d3" stroke-width="1.5"/>
      <path id="Path_6271" data-name="Path 6271" d="M0,0V59" transform="translate(888.5 218)" fill="none" stroke="#a2d2d3" stroke-width="1.5"/>
    </g>
  </g>
</svg>
