<svg xmlns="http://www.w3.org/2000/svg" xmlns:xlink="http://www.w3.org/1999/xlink" width="167.171" height="78" viewBox="0 0 167.171 78">
  <defs>
    <filter id="Ellipse_354" x="89.171" y="0" width="78" height="78" filterUnits="userSpaceOnUse">
      <feOffset dy="3" input="SourceAlpha"/>
      <feGaussianBlur stdDeviation="3" result="blur"/>
      <feFlood flood-opacity="0.365"/>
      <feComposite operator="in" in2="blur"/>
      <feComposite in="SourceGraphic"/>
    </filter>
    <filter id="Union_66" x="0" y="12" width="105.406" height="55" filterUnits="userSpaceOnUse">
      <feOffset dy="3" input="SourceAlpha"/>
      <feGaussianBlur stdDeviation="3" result="blur-2"/>
      <feFlood flood-opacity="0.224"/>
      <feComposite operator="in" in2="blur-2"/>
      <feComposite in="SourceGraphic"/>
    </filter>
  </defs>
  <g id="Group_3372" data-name="Group 3372" transform="translate(-194.829 -513)">
    <g transform="matrix(1, 0, 0, 1, 194.83, 513)" filter="url(#Ellipse_354)">
      <circle id="Ellipse_354-2" data-name="Ellipse 354" cx="30" cy="30" r="30" transform="translate(98.17 6)" fill="#faa74a"/>
    </g>
    <path id="Path_5274" data-name="Path 5274" d="M52.178,143.8,50.9,142.643l-3.3,3.667-4.446-4.815h2.345a4.321,4.321,0,0,0,4.316-4.316v-.863A4.321,4.321,0,0,0,45.495,132H36v16.4h1.726v-6.905H40.8l5.634,6.1-3.308,3.676,1.283,1.155,3.2-3.557,3.292,3.566,1.267-1.172-3.4-3.682ZM37.726,133.726h7.768a2.593,2.593,0,0,1,2.589,2.589v.863a2.593,2.593,0,0,1-2.589,2.589H37.726Z" transform="translate(278.5 406.5)" fill="#fff" stroke="#fff" stroke-width="1"/>
    <g transform="matrix(1, 0, 0, 1, 194.83, 513)" filter="url(#Union_66)">
      <path id="Union_66-2" data-name="Union 66" d="M2049-3294a5,5,0,0,1-5-5v-27a5,5,0,0,1,5-5h72.586a5,5,0,0,1,5,5v6.753l4.82,6.188-4.82,7.012V-3299a5,5,0,0,1-5,5Z" transform="translate(-2035 3349)" fill="#fff"/>
    </g>
    <text id="ADD_NEW_PRESCRIPTION" data-name="ADD NEW 
PRESCRIPTION" transform="translate(212 548)" fill="#1d2d3d" font-size="10" font-family="DINPro-Medium, DINPro" font-weight="500"><tspan x="0" y="0">ADD NEW </tspan><tspan x="0" y="12">PRESCRIPTION</tspan></text>
  </g>
</svg>
