<?xml version="1.0" encoding="UTF-8"?>
<glyph name="afii10196" format="1">
  <advance width="381"/>
  <unicode hex="0475"/>
  <outline>
    <contour>
      <point x="274" y="394" type="curve" smooth="yes"/>
      <point x="182" y="0" type="line"/>
      <point x="123" y="0" type="line"/>
      <point x="4" y="509" type="line"/>
      <point x="66" y="509" type="line"/>
      <point x="153" y="88" type="line"/>
      <point x="218" y="405" type="line" smooth="yes"/>
      <point x="234" y="483"/>
      <point x="289" y="509"/>
      <point x="366" y="509" type="curve"/>
      <point x="366" y="459" type="line"/>
      <point x="312" y="459"/>
      <point x="284" y="437"/>
    </contour>
  </outline>
  <lib>
    <dict>
      <key>com.fontlab.hintData</key>
      <dict>
        <key>hhints</key>
        <array>
          <dict>
            <key>position</key>
            <integer>0</integer>
            <key>width</key>
            <integer>21</integer>
          </dict>
          <dict>
            <key>position</key>
            <integer>459</integer>
            <key>width</key>
            <integer>50</integer>
          </dict>
        </array>
      </dict>
    </dict>
  </lib>
</glyph>
