<?xml version="1.0" encoding="UTF-8"?>
<glyph name="afii10100" format="1">
  <advance width="288"/>
  <unicode hex="0453"/>
  <outline>
    <contour>
      <point x="273" y="509" type="line"/>
      <point x="273" y="459" type="line"/>
      <point x="118" y="459" type="line"/>
      <point x="118" y="0" type="line"/>
      <point x="62" y="0" type="line"/>
      <point x="62" y="509" type="line"/>
    </contour>
    <contour>
      <point x="248" y="716" type="line"/>
      <point x="174" y="586" type="line"/>
      <point x="125" y="586" type="line"/>
      <point x="190" y="716" type="line"/>
    </contour>
  </outline>
  <lib>
    <dict>
      <key>com.fontlab.hintData</key>
      <dict>
        <key>hhints</key>
        <array>
          <dict>
            <key>position</key>
            <integer>0</integer>
            <key>width</key>
            <integer>21</integer>
          </dict>
          <dict>
            <key>position</key>
            <integer>459</integer>
            <key>width</key>
            <integer>50</integer>
          </dict>
        </array>
        <key>vhints</key>
        <array>
          <dict>
            <key>position</key>
            <integer>62</integer>
            <key>width</key>
            <integer>56</integer>
          </dict>
        </array>
      </dict>
    </dict>
  </lib>
</glyph>
