<?xml version="1.0" encoding="UTF-8"?>
<glyph name="agrave" format="1">
  <advance width="352"/>
  <unicode hex="00E0"/>
  <outline>
    <contour>
      <point x="294" y="0" type="line"/>
      <point x="240" y="0" type="line"/>
      <point x="240" y="46" type="line"/>
      <point x="233" y="32"/>
      <point x="221" y="19"/>
      <point x="212" y="12" type="curve" smooth="yes"/>
      <point x="196" y="0"/>
      <point x="179" y="-8"/>
      <point x="151" y="-8" type="curve" smooth="yes"/>
      <point x="119" y="-8"/>
      <point x="92" y="3"/>
      <point x="70" y="26" type="curve" smooth="yes"/>
      <point x="51" y="46"/>
      <point x="37" y="86"/>
      <point x="37" y="141" type="curve" smooth="yes"/>
      <point x="37" y="189"/>
      <point x="51" y="230"/>
      <point x="80" y="256" type="curve" smooth="yes"/>
      <point x="105" y="279"/>
      <point x="134" y="290"/>
      <point x="180" y="290" type="curve" smooth="yes"/>
      <point x="238" y="290" type="line"/>
      <point x="238" y="381" type="line" smooth="yes"/>
      <point x="238" y="437"/>
      <point x="215" y="468"/>
      <point x="168" y="468" type="curve" smooth="yes"/>
      <point x="148" y="468"/>
      <point x="133" y="460"/>
      <point x="122" y="449" type="curve" smooth="yes"/>
      <point x="106" y="432"/>
      <point x="99" y="412"/>
      <point x="99" y="378" type="curve"/>
      <point x="43" y="378" type="line"/>
      <point x="43" y="416"/>
      <point x="51" y="454"/>
      <point x="80" y="483" type="curve" smooth="yes"/>
      <point x="101" y="504"/>
      <point x="131" y="517"/>
      <point x="168" y="517" type="curve" smooth="yes"/>
      <point x="208" y="517"/>
      <point x="239" y="506"/>
      <point x="259" y="485" type="curve" smooth="yes"/>
      <point x="282" y="461"/>
      <point x="294" y="429"/>
      <point x="294" y="379" type="curve" smooth="yes"/>
    </contour>
    <contour>
      <point x="238" y="134" type="curve" smooth="yes"/>
      <point x="238" y="246" type="line"/>
      <point x="182" y="246" type="line" smooth="yes"/>
      <point x="156" y="246"/>
      <point x="137" y="240"/>
      <point x="120" y="224" type="curve" smooth="yes"/>
      <point x="103" y="207"/>
      <point x="93" y="176"/>
      <point x="93" y="142" type="curve" smooth="yes"/>
      <point x="93" y="81"/>
      <point x="115" y="42"/>
      <point x="164" y="42" type="curve" smooth="yes"/>
      <point x="209" y="42"/>
      <point x="238" y="81"/>
    </contour>
    <contour>
      <point x="202" y="586" type="line"/>
      <point x="153" y="586" type="line"/>
      <point x="78" y="716" type="line"/>
      <point x="136" y="716" type="line"/>
    </contour>
  </outline>
  <lib>
    <dict>
      <key>com.fontlab.hintData</key>
      <dict>
        <key>hhints</key>
        <array>
          <dict>
            <key>position</key>
            <integer>-8</integer>
            <key>width</key>
            <integer>50</integer>
          </dict>
          <dict>
            <key>position</key>
            <integer>0</integer>
            <key>width</key>
            <integer>21</integer>
          </dict>
          <dict>
            <key>position</key>
            <integer>246</integer>
            <key>width</key>
            <integer>44</integer>
          </dict>
          <dict>
            <key>position</key>
            <integer>468</integer>
            <key>width</key>
            <integer>49</integer>
          </dict>
        </array>
        <key>vhints</key>
        <array>
          <dict>
            <key>position</key>
            <integer>37</integer>
            <key>width</key>
            <integer>56</integer>
          </dict>
          <dict>
            <key>position</key>
            <integer>238</integer>
            <key>width</key>
            <integer>56</integer>
          </dict>
        </array>
      </dict>
    </dict>
  </lib>
</glyph>
