<?xml version="1.0" encoding="UTF-8"?>
<glyph name="eth" format="1">
  <advance width="355"/>
  <unicode hex="00F0"/>
  <outline>
    <contour>
      <point x="309" y="249" type="curve" smooth="yes"/>
      <point x="309" y="130"/>
      <point x="302" y="67"/>
      <point x="271" y="31" type="curve" smooth="yes"/>
      <point x="249" y="5"/>
      <point x="218" y="-8"/>
      <point x="177" y="-8" type="curve" smooth="yes"/>
      <point x="136" y="-8"/>
      <point x="105" y="5"/>
      <point x="83" y="31" type="curve" smooth="yes"/>
      <point x="52" y="67"/>
      <point x="45" y="130"/>
      <point x="45" y="249" type="curve" smooth="yes"/>
      <point x="45" y="374"/>
      <point x="52" y="435"/>
      <point x="83" y="470" type="curve" smooth="yes"/>
      <point x="103" y="492"/>
      <point x="131" y="505"/>
      <point x="168" y="505" type="curve" smooth="yes"/>
      <point x="187" y="505"/>
      <point x="207" y="501"/>
      <point x="223" y="491" type="curve"/>
      <point x="191" y="582" type="line"/>
      <point x="109" y="582" type="line"/>
      <point x="109" y="626" type="line"/>
      <point x="176" y="626" type="line"/>
      <point x="143" y="712" type="line"/>
      <point x="200" y="712" type="line"/>
      <point x="232" y="626" type="line"/>
      <point x="304" y="626" type="line"/>
      <point x="304" y="582" type="line"/>
      <point x="247" y="582" type="line"/>
      <point x="286" y="467" type="line" smooth="yes"/>
      <point x="302" y="418"/>
      <point x="309" y="367"/>
    </contour>
    <contour>
      <point x="253" y="250" type="curve" smooth="yes"/>
      <point x="253" y="357"/>
      <point x="251" y="408"/>
      <point x="228" y="435" type="curve" smooth="yes"/>
      <point x="217" y="448"/>
      <point x="199" y="457"/>
      <point x="177" y="457" type="curve" smooth="yes"/>
      <point x="155" y="457"/>
      <point x="138" y="448"/>
      <point x="127" y="435" type="curve" smooth="yes"/>
      <point x="104" y="408"/>
      <point x="101" y="357"/>
      <point x="101" y="250" type="curve" smooth="yes"/>
      <point x="101" y="143"/>
      <point x="104" y="91"/>
      <point x="127" y="64" type="curve" smooth="yes"/>
      <point x="138" y="51"/>
      <point x="155" y="42"/>
      <point x="177" y="42" type="curve" smooth="yes"/>
      <point x="199" y="42"/>
      <point x="217" y="51"/>
      <point x="228" y="64" type="curve" smooth="yes"/>
      <point x="251" y="91"/>
      <point x="253" y="143"/>
    </contour>
  </outline>
  <lib>
    <dict>
      <key>com.fontlab.hintData</key>
      <dict>
        <key>hhints</key>
        <array>
          <dict>
            <key>position</key>
            <integer>-8</integer>
            <key>width</key>
            <integer>50</integer>
          </dict>
          <dict>
            <key>position</key>
            <integer>457</integer>
            <key>width</key>
            <integer>48</integer>
          </dict>
          <dict>
            <key>position</key>
            <integer>582</integer>
            <key>width</key>
            <integer>44</integer>
          </dict>
          <dict>
            <key>position</key>
            <integer>692</integer>
            <key>width</key>
            <integer>20</integer>
          </dict>
        </array>
        <key>vhints</key>
        <array>
          <dict>
            <key>position</key>
            <integer>45</integer>
            <key>width</key>
            <integer>56</integer>
          </dict>
          <dict>
            <key>position</key>
            <integer>253</integer>
            <key>width</key>
            <integer>56</integer>
          </dict>
        </array>
      </dict>
    </dict>
  </lib>
</glyph>
