<?xml version="1.0" encoding="UTF-8"?>
<glyph name="i" format="1">
  <advance width="181"/>
  <unicode hex="0069"/>
  <outline>
    <contour>
      <point x="118" y="0" type="line"/>
      <point x="62" y="0" type="line"/>
      <point x="62" y="509" type="line"/>
      <point x="118" y="509" type="line"/>
    </contour>
    <contour>
      <point x="126" y="626" type="line"/>
      <point x="54" y="626" type="line"/>
      <point x="54" y="698" type="line"/>
      <point x="126" y="698" type="line"/>
    </contour>
  </outline>
  <lib>
    <dict>
      <key>com.fontlab.hintData</key>
      <dict>
        <key>hhints</key>
        <array>
          <dict>
            <key>position</key>
            <integer>0</integer>
            <key>width</key>
            <integer>21</integer>
          </dict>
          <dict>
            <key>position</key>
            <integer>489</integer>
            <key>width</key>
            <integer>20</integer>
          </dict>
          <dict>
            <key>position</key>
            <integer>678</integer>
            <key>width</key>
            <integer>20</integer>
          </dict>
        </array>
        <key>vhints</key>
        <array>
          <dict>
            <key>position</key>
            <integer>62</integer>
            <key>width</key>
            <integer>56</integer>
          </dict>
        </array>
      </dict>
    </dict>
  </lib>
</glyph>
