<?xml version="1.0" encoding="UTF-8"?>
<glyph name="zero.tosf" format="1">
  <advance width="361"/>
  <outline>
    <contour>
      <point x="307" y="128" type="line" smooth="yes"/>
      <point x="307" y="78"/>
      <point x="293" y="49"/>
      <point x="271" y="27" type="curve" smooth="yes"/>
      <point x="249" y="5"/>
      <point x="215" y="-8"/>
      <point x="180" y="-8" type="curve" smooth="yes"/>
      <point x="145" y="-8"/>
      <point x="111" y="5"/>
      <point x="90" y="27" type="curve" smooth="yes"/>
      <point x="68" y="49"/>
      <point x="54" y="78"/>
      <point x="54" y="128" type="curve" smooth="yes"/>
      <point x="54" y="466" type="line" smooth="yes"/>
      <point x="54" y="516"/>
      <point x="68" y="545"/>
      <point x="90" y="567" type="curve" smooth="yes"/>
      <point x="111" y="589"/>
      <point x="145" y="602"/>
      <point x="180" y="602" type="curve" smooth="yes"/>
      <point x="215" y="602"/>
      <point x="249" y="589"/>
      <point x="271" y="567" type="curve" smooth="yes"/>
      <point x="293" y="545"/>
      <point x="307" y="516"/>
      <point x="307" y="466" type="curve" smooth="yes"/>
    </contour>
    <contour>
      <point x="251" y="125" type="curve" smooth="yes"/>
      <point x="251" y="469" type="line" smooth="yes"/>
      <point x="251" y="524"/>
      <point x="220" y="552"/>
      <point x="180" y="552" type="curve" smooth="yes"/>
      <point x="141" y="552"/>
      <point x="110" y="524"/>
      <point x="110" y="469" type="curve" smooth="yes"/>
      <point x="110" y="125" type="line" smooth="yes"/>
      <point x="110" y="70"/>
      <point x="141" y="42"/>
      <point x="180" y="42" type="curve" smooth="yes"/>
      <point x="220" y="42"/>
      <point x="251" y="70"/>
    </contour>
  </outline>
  <lib>
    <dict>
      <key>com.fontlab.hintData</key>
      <dict>
        <key>hhints</key>
        <array>
          <dict>
            <key>position</key>
            <integer>-8</integer>
            <key>width</key>
            <integer>50</integer>
          </dict>
          <dict>
            <key>position</key>
            <integer>552</integer>
            <key>width</key>
            <integer>50</integer>
          </dict>
        </array>
        <key>vhints</key>
        <array>
          <dict>
            <key>position</key>
            <integer>54</integer>
            <key>width</key>
            <integer>56</integer>
          </dict>
          <dict>
            <key>position</key>
            <integer>251</integer>
            <key>width</key>
            <integer>56</integer>
          </dict>
        </array>
      </dict>
    </dict>
  </lib>
</glyph>
