<?xml version="1.0" encoding="UTF-8"?>
<glyph name="zero.numr" format="1">
  <advance width="278"/>
  <outline>
    <contour>
      <point x="237" y="369" type="line" smooth="yes"/>
      <point x="237" y="338"/>
      <point x="227" y="318"/>
      <point x="211" y="303" type="curve" smooth="yes"/>
      <point x="194" y="288"/>
      <point x="165" y="280"/>
      <point x="139" y="280" type="curve" smooth="yes"/>
      <point x="113" y="280"/>
      <point x="83" y="289"/>
      <point x="68" y="303" type="curve" smooth="yes"/>
      <point x="51" y="318"/>
      <point x="41" y="338"/>
      <point x="41" y="369" type="curve" smooth="yes"/>
      <point x="41" y="628" type="line" smooth="yes"/>
      <point x="41" y="660"/>
      <point x="51" y="680"/>
      <point x="68" y="694" type="curve" smooth="yes"/>
      <point x="83" y="708"/>
      <point x="109" y="717"/>
      <point x="139" y="717" type="curve" smooth="yes"/>
      <point x="169" y="717"/>
      <point x="194" y="708"/>
      <point x="211" y="694" type="curve" smooth="yes"/>
      <point x="227" y="680"/>
      <point x="237" y="660"/>
      <point x="237" y="628" type="curve" smooth="yes"/>
    </contour>
    <contour>
      <point x="194" y="367" type="curve" smooth="yes"/>
      <point x="194" y="630" type="line" smooth="yes"/>
      <point x="194" y="663"/>
      <point x="171" y="679"/>
      <point x="139" y="679" type="curve" smooth="yes"/>
      <point x="107" y="679"/>
      <point x="85" y="663"/>
      <point x="85" y="630" type="curve" smooth="yes"/>
      <point x="85" y="367" type="line" smooth="yes"/>
      <point x="85" y="334"/>
      <point x="107" y="318"/>
      <point x="139" y="318" type="curve" smooth="yes"/>
      <point x="171" y="318"/>
      <point x="194" y="334"/>
    </contour>
  </outline>
  <lib>
    <dict>
      <key>com.fontlab.hintData</key>
      <dict>
        <key>hhints</key>
        <array>
          <dict>
            <key>position</key>
            <integer>280</integer>
            <key>width</key>
            <integer>38</integer>
          </dict>
          <dict>
            <key>position</key>
            <integer>679</integer>
            <key>width</key>
            <integer>38</integer>
          </dict>
        </array>
        <key>vhints</key>
        <array>
          <dict>
            <key>position</key>
            <integer>41</integer>
            <key>width</key>
            <integer>44</integer>
          </dict>
          <dict>
            <key>position</key>
            <integer>194</integer>
            <key>width</key>
            <integer>43</integer>
          </dict>
        </array>
      </dict>
    </dict>
  </lib>
</glyph>
