<svg xmlns="http://www.w3.org/2000/svg" width="15.483" height="20.644" viewBox="0 0 15.483 20.644">
  <g id="Group_3483" data-name="Group 3483" transform="translate(-2605.258 2502.322)">
    <g id="prescription_2_" data-name="prescription (2)" transform="translate(2541.258 -2502.322)">
      <g id="Group_3482" data-name="Group 3482" transform="translate(64)">
        <g id="Group_3481" data-name="Group 3481" transform="translate(0)">
          <path id="Path_6207" data-name="Path 6207" d="M79.357,4.427l-4.3-4.3a.43.43,0,0,0-.3-.126H65.72A1.722,1.722,0,0,0,64,1.72v17.2a1.722,1.722,0,0,0,1.72,1.72H77.763a1.722,1.722,0,0,0,1.72-1.72V4.731A.43.43,0,0,0,79.357,4.427ZM75.182,1.468,78.015,4.3H76.042a.861.861,0,0,1-.86-.86Zm3.441,17.455a.861.861,0,0,1-.86.86H65.72a.861.861,0,0,1-.86-.86V1.72a.861.861,0,0,1,.86-.86h8.6V3.441a1.722,1.722,0,0,0,1.72,1.72h2.581Z" transform="translate(-64)" fill="#a3cf62"/>
          <path id="Path_6208" data-name="Path 6208" d="M177.386,175.923a.432.432,0,0,0-.6.067l-1.268,1.585-1.96-2.744a2.146,2.146,0,0,0-.737-4.162H171.1a.43.43,0,0,0-.43.43v6.021a.43.43,0,1,0,.86,0v-2.15H172.6l2.36,3.3-1.615,2.018a.43.43,0,0,0,.672.538L175.475,179l1.292,1.809a.43.43,0,0,0,.7-.5l-1.434-2.007,1.42-1.775A.431.431,0,0,0,177.386,175.923Zm-5.86-1.814v-2.581h1.29a1.29,1.29,0,0,1,0,2.581Z" transform="translate(-166.365 -163.787)" fill="#a3cf62"/>
        </g>
      </g>
    </g>
    <path id="Path_3298" data-name="Path 3298" d="M457.777,375.274V377.5c0,.7-.252,1.274-.955,1.274-1.226-.051-.653-1.592-1.436-2.35s-2.229-.032-2.385-1.471c0-.7.57-.955,1.274-.955H456.5A1.274,1.274,0,0,1,457.777,375.274Z" transform="translate(2233.111 -2043.111) rotate(-90)" fill="#a3cf62" opacity="0.4"/>
  </g>
</svg>
