<svg xmlns="http://www.w3.org/2000/svg" width="120" height="120" viewBox="0 0 120 120">
  <defs>
    <style>
      .cls-1, .cls-2, .cls-4 {
        fill: none;
      }

      .cls-2, .cls-4 {
        stroke: #6d6e70;
        stroke-width: 2px;
      }

      .cls-3 {
        fill: #6d6e70;
      }

      .cls-4 {
        stroke-linejoin: round;
      }

      .cls-5 {
        fill: #faa74a;
        opacity: 0.4;
      }
    </style>
  </defs>
  <g id="Group_2714" data-name="Group 2714" transform="translate(-600 -846)">
    <path id="Path_3507" data-name="Path 3507" class="cls-1" d="M0,0H120V120H0Z" transform="translate(600 846)"/>
    <g id="Group_2632" data-name="Group 2632" transform="translate(0.021)">
      <g id="Group_2631" data-name="Group 2631" transform="translate(8.103 6.789)">
        <g id="Group_2629" data-name="Group 2629" transform="translate(628.334 882.211)">
          <g id="Group_2628" data-name="Group 2628" transform="translate(0)">
            <g id="Group_2627" data-name="Group 2627" transform="translate(0 0)">
              <path id="Path_3500" data-name="Path 3500" class="cls-2" d="M51.225,43.43c0-1.623-1.924-9.32-1.924-11.786s.962-8.118,1.2-9.862.059-3.067.239-4.089-43.836-.9-43.776-.241.06,2.406.241,4.33S8.651,29,8.411,31.164,5.1,41.026,5.043,42.949a5.7,5.7,0,0,0,.241,2.405c.344.614,7.2,5.532,23.572,5.532,14.345,0,21.829-4.089,22.129-4.57S51.225,45.054,51.225,43.43Z" transform="translate(-5.022 -16.941)"/>
            </g>
          </g>
        </g>
        <ellipse id="Ellipse_487" data-name="Ellipse 487" class="cls-3" cx="1.068" cy="1.779" rx="1.068" ry="1.779" transform="translate(650.71 906.972)"/>
        <path id="Path_3503" data-name="Path 3503" class="cls-4" d="M37.609,4.194a.484.484,0,0,1,.139.277c0,.139.139.277.139.416a3.473,3.473,0,0,0,.554.97,1.653,1.653,0,0,0,1.247.693A1.756,1.756,0,0,0,40.935,6c.97-.831,1.8-1.8,2.633-2.633a15.806,15.806,0,0,0,1.524-1.524.429.429,0,0,1,.277-.139.484.484,0,0,1,.139.277,17.873,17.873,0,0,1,1.247,2.217,2.569,2.569,0,0,0,.277.97l.416.97c.416.831.693,1.524,1.109,2.356l.139.277-.277.139c-.97.554-1.663.97-2.494,1.386-1.109.554-2.078,1.247-3.187,1.8-1.247.693-2.356,1.386-3.6,2.078l-.277.139s-.139,0-.139-.277c-.139-.416-.277-.693-.416-1.109-.139-.277-.139-.416-.277-.693-.139-.139-.139-.416-.277-.554-.277-.554-.554-.97-1.109-1.109a1.4,1.4,0,0,0-1.386.277c-1.386.831-2.91,1.8-4.3,2.633l-.554.416c-.139.139-.416.277-.554.139l-.139-.139c-.139-.139.139-.416.139-.554,2.91-3.464,5.265-6.374,7.621-9.145Z" transform="translate(646.427 883.481)"/>
        <path id="Path_3505" data-name="Path 3505" class="cls-4" d="M0,9.908a.388.388,0,0,1,.251.125H.627a2.762,2.762,0,0,1,1,.125,1.4,1.4,0,0,1,1,.878,2.063,2.063,0,0,1-.125,1.254c-.376,1-.878,2.132-1.254,3.135L.5,17.308v.125H.753a13.632,13.632,0,0,1,2.258.125H4.891a15.178,15.178,0,0,1,2.383.125h.251l.125-.251c.125-.878.251-1.756.376-2.508.125-1.129.376-2.132.5-3.261.251-1.254.376-2.508.627-3.763V7.651L8.9,7.525H6.522a1.916,1.916,0,0,1-1.254-.5,1.71,1.71,0,0,1-.251-1.254c.251-1.505.627-3.01.878-4.515L6.02.627c0-.125.125-.5-.125-.627H5.769a.565.565,0,0,0-.376.376C3.386,4.013,1.756,6.9.125,9.783A.123.123,0,0,0,0,9.908Z" transform="matrix(-0.105, 0.995, -0.995, -0.105, 627.421, 889.888)"/>
      </g>
      <path id="Path_3506" data-name="Path 3506" class="cls-5" d="M6613.951,900.043c1.411-.269,4.131.218,5.643,3.56s-1.528,5.844.4,9.808,9.035,5.391,7.322,6.046-10.833.269-14.174-3.426.135-9.606.806-11.353S6612.54,900.311,6613.951,900.043Z" transform="translate(-5970)"/>
    </g>
  </g>
</svg>
