<svg xmlns="http://www.w3.org/2000/svg" width="120" height="120" viewBox="0 0 120 120">
  <defs>
    <style>
      .cls-1, .cls-2 {
        fill: none;
      }

      .cls-2 {
        stroke: #6d6e70;
        stroke-width: 2px;
      }

      .cls-3 {
        fill: #faa74a;
        opacity: 0.4;
      }
    </style>
  </defs>
  <g id="Group_2479" data-name="Group 2479" transform="translate(-360 -846)">
    <rect id="Rectangle_3146" data-name="Rectangle 3146" class="cls-1" width="120" height="120" transform="translate(360 846)"/>
    <g id="Group_2224" data-name="Group 2224" transform="translate(0 1.649)">
      <path id="Path_3421" data-name="Path 3421" class="cls-2" d="M155.142,68.676a8.658,8.658,0,0,0-.26,2.085,36.542,36.542,0,0,1-.79,6.938c-.383,1.22-.288,2.464-.491,2.955s-.275,1.794-.431,2.142.814,3.84.215,5.9a17.121,17.121,0,0,0-.766,3.541,25.453,25.453,0,0,0-.359,3.864,4.541,4.541,0,0,1,.167,1.711c-.084.263.335,1.627-.048,2.046a4.521,4.521,0,0,0-1.076,1.782,4.452,4.452,0,0,1-.574,1.232s-.658.718-1.22.718-.67-.227-.67-.227-.514.06-.658-.155c0,0-.479-.168-.479-.323a.494.494,0,0,1-.275-.359,1.9,1.9,0,0,1,.556-1.806,4.669,4.669,0,0,1,.891-.772l.9-1.687s-.132-6.269-.323-7.082a30.787,30.787,0,0,1-.359-7.082,18.548,18.548,0,0,0-.191-4.785,20.725,20.725,0,0,1-1.029-7.537c.359-3.517,1.531-8.183,1.6-9.307a7.546,7.546,0,0,1,.575-2.249,12.235,12.235,0,0,1-.335-3.014A12.059,12.059,0,0,0,149,52.343a4.417,4.417,0,0,1-.574-1.7l-1.651,3.947a33.778,33.778,0,0,1-3.374,6.484c-1.555,1.914-1.364,3.039-1.364,3.039s-.455,2.441-.574,2.9-.91,2.832-1.233,2.94-.419-.395-.168-1.064a15.5,15.5,0,0,0,.455-1.508l-.206.024s-.628,2-.695,2.252-.239,1.1-.622,1.064-.03-1.16-.03-1.16l.592-2.183-.281-.085s-.481,1.693-.528,1.926-.248,1.579-.631,1.621-.359-.424-.317-.574.238-1.591.34-1.938.485-1.387.485-1.387l-.174-.108a15.941,15.941,0,0,0-.736,2.075c-.113.609-.257,1.131-.575,1.131s-.282-.593-.174-1.07.52-2.524.676-2.871.406-1.191.406-1.191a3.7,3.7,0,0,1-.619.236c-.125.006-.811.637-1.14.667-.257.023-.411-.241-.467-.358a.081.081,0,0,1,.017-.094c.2-.19,1.056-1.015,1.162-1.073a9.1,9.1,0,0,1,2.626-1.412,51.061,51.061,0,0,0,1.782-5.276,17.246,17.246,0,0,1,2.069-5.216s.479-3,1.7-4.247c0,0-.084-4.391,2-5.731s2.727-.646,3.206-.837,2.632-1.412,2.632-1.412V37.518a2.341,2.341,0,0,1-.2-.778l-.036-.442s-.347.526-.646.119a2.841,2.841,0,0,1-.263-1.83c.131-.3.491-.108.491-.108a6.78,6.78,0,0,1,.245-3.032,3.112,3.112,0,0,1,5.713,0,6.768,6.768,0,0,1,.245,3.032s.359-.191.491.108a2.84,2.84,0,0,1-.263,1.83c-.3.407-.646-.119-.646-.119l-.036.442a2.337,2.337,0,0,1-.2.778V40.15s2.153,1.22,2.632,1.412,1.125-.5,3.206.837,2,5.731,2,5.731c1.22,1.244,1.7,4.247,1.7,4.247a17.24,17.24,0,0,1,2.069,5.216,51.112,51.112,0,0,0,1.782,5.276,9.114,9.114,0,0,1,2.626,1.412c.106.058.964.883,1.162,1.073a.079.079,0,0,1,.017.094c-.056.117-.21.381-.467.358-.329-.03-1.014-.66-1.14-.667a3.687,3.687,0,0,1-.619-.236s.251.843.406,1.191.568,2.393.676,2.871.159.951-.158.951-.445-.4-.59-1.011-.736-2.075-.736-2.075l-.174.108s.383,1.041.485,1.387.3,1.788.34,1.938.066.616-.317.575-.583-1.387-.631-1.621-.528-1.926-.528-1.926l-.281.085.592,2.183s.353,1.125-.03,1.16-.556-.813-.622-1.064S170.6,67.4,170.6,67.4l-.206-.024a15.511,15.511,0,0,0,.455,1.508c.251.67.155,1.172-.168,1.064s-1.113-2.485-1.233-2.94-.574-2.9-.574-2.9.191-1.124-1.364-3.039a33.806,33.806,0,0,1-3.374-6.484l-1.651-3.947a4.418,4.418,0,0,1-.574,1.7,12.068,12.068,0,0,0-.718,4.857,12.226,12.226,0,0,1-.335,3.014,7.555,7.555,0,0,1,.574,2.249c.072,1.125,1.244,5.79,1.6,9.307A20.741,20.741,0,0,1,162,79.308a18.548,18.548,0,0,0-.191,4.785,30.686,30.686,0,0,1-.359,7.082c-.192.814-.323,7.082-.323,7.082l.9,1.687a4.669,4.669,0,0,1,.891.772,1.9,1.9,0,0,1,.556,1.806.492.492,0,0,1-.275.359c0,.155-.479.323-.479.323-.143.215-.658.155-.658.155s-.108.227-.67.227-1.22-.718-1.22-.718a4.467,4.467,0,0,1-.574-1.232,4.528,4.528,0,0,0-1.076-1.782c-.383-.419.036-1.782-.048-2.046a4.54,4.54,0,0,1,.168-1.711,25.458,25.458,0,0,0-.359-3.864,17.11,17.11,0,0,0-.766-3.541c-.6-2.058.371-5.551.215-5.9s-.227-1.651-.431-2.142-.108-1.735-.491-2.955a36.59,36.59,0,0,1-.79-6.938,8.659,8.659,0,0,0-.26-2.085.326.326,0,0,0-.63,0Z" transform="translate(264.188 837.782)"/>
      <path id="Path_3422" data-name="Path 3422" class="cls-3" d="M2.608,3.658c1.44,0,2.608-1.44,2.608,0A2.608,2.608,0,1,1,0,3.658C0,2.218,1.167,3.658,2.608,3.658Z" transform="matrix(-0.809, 0.588, -0.588, -0.809, 418.699, 885.283)"/>
      <path id="Path_3423" data-name="Path 3423" class="cls-3" d="M2.608,3.658c1.44,0,2.608-1.44,2.608,0A2.608,2.608,0,1,1,0,3.658C0,2.218,1.167,3.658,2.608,3.658Z" transform="translate(424.783 888.274) rotate(-139)"/>
      <path id="Path_3424" data-name="Path 3424" class="cls-3" d="M3.422-1.573C4.672-1.573,8.659-.714,8,2L6,16a2,2,0,0,1-2,2H3a2,2,0,0,1-2-2L-1,2C-1.771-.672,2.172-1.573,3.422-1.573Z" transform="translate(416 886)"/>
    </g>
  </g>
</svg>
