<svg xmlns="http://www.w3.org/2000/svg" width="120" height="120" viewBox="0 0 120 120">
  <defs>
    <style>
      .cls-1 {
        fill: none;
        opacity: 0.5;
      }

      .cls-2 {
        fill: #6d6e70;
      }

      .cls-3 {
        fill: #faa74a;
        opacity: 0.4;
      }
    </style>
  </defs>
  <g id="Group_2472" data-name="Group 2472" transform="translate(-1320 -726)">
    <rect id="Rectangle_3515" data-name="Rectangle 3515" class="cls-1" width="120" height="120" transform="translate(1320 726)"/>
    <g id="Group_2211" data-name="Group 2211" transform="translate(-7.754 6.732)">
      <g id="Group_2210" data-name="Group 2210" transform="translate(0 22.657)">
        <path id="Path_3383" data-name="Path 3383" class="cls-2" d="M15.516,37.569a5.044,5.044,0,0,0,1.528,9.162A22.188,22.188,0,0,0,28.053,58.525a5.065,5.065,0,0,0,9.383,2.149h.1a21.918,21.918,0,0,0,15.047-5.934,4.742,4.742,0,0,0,1.031.115,5.074,5.074,0,0,0,5.068-5.067,5.023,5.023,0,0,0-.793-2.691,21.845,21.845,0,0,0,1.711-8.488,22.071,22.071,0,0,0-2.368-9.931,5.066,5.066,0,0,0-6.476-7.729,22.114,22.114,0,0,0-13.221-4.4,21.8,21.8,0,0,0-8.3,1.637,5.061,5.061,0,0,0-8.252,5.861A21.961,21.961,0,0,0,15.516,37.569Zm7.663-14.3a2.863,2.863,0,0,1-.938-2.118A2.894,2.894,0,0,1,27.789,20l.443,1.017,1.007-.464a19.7,19.7,0,0,1,8.3-1.833A19.928,19.928,0,0,1,50.1,23.188l.767.625.694-.705a2.893,2.893,0,1,1,3.7,4.415l-.815.56.481.864a19.8,19.8,0,0,1,.74,17.842l-.282.624.442.523a2.86,2.86,0,0,1,.694,1.854,2.9,2.9,0,0,1-2.9,2.9,2.849,2.849,0,0,1-.967-.182l-.644-.23-.486.481A19.77,19.77,0,0,1,37.54,58.5c-.122,0-.242-.009-.362-.017s-.237-.016-.358-.02l-.757-.025-.285.7a2.892,2.892,0,0,1-5.573-1.064c.009-.062.016-.123.02-.187l.045-.755-.694-.3A19.992,19.992,0,0,1,18.861,45.4l-.232-.639-.677-.07a2.877,2.877,0,0,1-.914-5.482l.617-.286.012-.679a19.805,19.805,0,0,1,5.557-13.418l.769-.8Z" transform="translate(1351.577 716.527)"/>
        <path id="Path_3384" data-name="Path 3384" class="cls-2" d="M53.413,32.467a3.994,3.994,0,1,0-3.994-3.994A4,4,0,0,0,53.413,32.467Zm0-5.816a1.822,1.822,0,1,1-1.822,1.821A1.823,1.823,0,0,1,53.413,26.651Z" transform="translate(1341.575 714.21)"/>
        <path id="Path_3389" data-name="Path 3389" class="cls-2" d="M63.983,52.158A4.761,4.761,0,1,0,59.222,47.4,4.767,4.767,0,0,0,63.983,52.158Zm0-7.35A2.589,2.589,0,1,1,61.394,47.4,2.592,2.592,0,0,1,63.983,44.808Z" transform="translate(1338.869 709.199)"/>
        <path id="Path_3395" data-name="Path 3395" class="cls-2" d="M51.777,58.061a4,4,0,1,0,4,4A4.005,4.005,0,0,0,51.777,58.061Zm0,5.827A1.827,1.827,0,1,1,53.6,62.061,1.83,1.83,0,0,1,51.777,63.888Z" transform="translate(1342.028 704.942)"/>
        <path id="Path_3396" data-name="Path 3396" class="cls-2" d="M23.023,39.87a4.8,4.8,0,1,0,4.8-4.8A4.8,4.8,0,0,0,23.023,39.87Zm4.8-2.624A2.624,2.624,0,1,1,25.2,39.87,2.627,2.627,0,0,1,27.819,37.246Z" transform="translate(1356.86 712.286)"/>
      </g>
      <path id="Path_3397" data-name="Path 3397" class="cls-3" d="M10.642,1.527c5.877,0,10.642-3.435,10.642,0S16.519,7.746,10.642,7.746,0,4.961,0,1.527,4.765,1.527,10.642,1.527Z" transform="translate(1375.596 772.017) rotate(65)"/>
    </g>
  </g>
</svg>
