<svg xmlns="http://www.w3.org/2000/svg" width="120" height="120" viewBox="0 0 120 120">
  <defs>
    <style>
      .cls-1 {
        fill: none;
      }

      .cls-2 {
        fill: #faa74a;
        opacity: 0.4;
      }

      .cls-3 {
        fill: #6d6e70;
      }
    </style>
  </defs>
  <g id="Group_2697" data-name="Group 2697" transform="translate(-2160 -726)">
    <rect id="Rectangle_3667" data-name="Rectangle 3667" class="cls-1" width="120" height="120" transform="translate(2160 726)"/>
    <g id="Group_2679" data-name="Group 2679" transform="translate(0 0)">
      <path id="Path_3580" data-name="Path 3580" class="cls-2" d="M4,0h6a2,2,0,0,1,2,2V28a2,2,0,0,1-2,2A10,10,0,0,1,0,20V4A4,4,0,0,1,4,0Z" transform="translate(2205 775)"/>
      <circle id="Ellipse_504" data-name="Ellipse 504" class="cls-3" cx="2" cy="2" r="2" transform="translate(2205 784)"/>
      <circle id="Ellipse_508" data-name="Ellipse 508" class="cls-3" cx="2" cy="2" r="2" transform="translate(2232 782)"/>
      <circle id="Ellipse_505" data-name="Ellipse 505" class="cls-3" cx="2" cy="2" r="2" transform="translate(2207 798)"/>
      <circle id="Ellipse_509" data-name="Ellipse 509" class="cls-3" cx="2" cy="2" r="2" transform="translate(2228 798)"/>
      <circle id="Ellipse_506" data-name="Ellipse 506" class="cls-3" cx="2" cy="2" r="2" transform="translate(2210 790)"/>
      <circle id="Ellipse_507" data-name="Ellipse 507" class="cls-3" cx="2" cy="2" r="2" transform="translate(2222 805)"/>
      <g id="Group_2678" data-name="Group 2678" transform="translate(2183.5 747.497)">
        <path id="Path_3579" data-name="Path 3579" class="cls-3" d="M69.146,22.713C60.194,16.949,51.738,11.5,46.461,11.5a5.48,5.48,0,0,0-2.8.686c-.584.342-1.1.647-1.55.919-2.726,1.628-3.218,1.921-5.54,1.921s-2.813-.294-5.54-1.921c-.455-.272-.966-.577-1.55-.919a5.473,5.473,0,0,0-2.8-.686c-5.276,0-13.733,5.445-22.685,11.21a1.067,1.067,0,0,0,.026,1.811,40.385,40.385,0,0,1,8.513,7.123,38.856,38.856,0,0,0,5.224,4.737v8.925c0,9.889,8.047,20.949,18.815,20.949S55.384,55.2,55.384,45.308V36.384a38.8,38.8,0,0,0,5.224-4.736,40.364,40.364,0,0,1,8.513-7.123,1.067,1.067,0,0,0,.026-1.811ZM53.25,45.308c0,10.769-8.807,18.815-16.683,18.815S19.886,56.076,19.886,45.308V28.282c0-4.258,5.976-4.59,7.808-4.59,6.463,0,7.8,1.414,7.808,3.537V48.89a1.067,1.067,0,1,0,2.133,0V27.253s0,0,0-.007c0-2.133,1.328-3.554,7.808-3.554,1.831,0,7.808.331,7.808,4.59V45.308Zm5.83-15.151a48.531,48.531,0,0,1-3.7,3.537V28.282c0-4.147-3.809-6.723-9.941-6.723-2.256,0-6.806,0-8.874,2.479-2.069-2.479-6.619-2.479-8.874-2.479-6.132,0-9.941,2.576-9.941,6.723v5.412a48.4,48.4,0,0,1-3.7-3.538,45.542,45.542,0,0,0-7.511-6.551c7.851-5.046,15.742-9.969,20.129-9.969a3.4,3.4,0,0,1,1.725.394c.578.339,1.084.641,1.535.91,2.86,1.707,3.723,2.222,6.633,2.222s3.773-.516,6.633-2.222c.451-.269.956-.571,1.535-.91a3.393,3.393,0,0,1,1.725-.394c4.388,0,12.279,4.922,20.129,9.969A45.48,45.48,0,0,0,59.08,30.157Z" transform="translate(0)"/>
      </g>
    </g>
  </g>
</svg>
