<svg xmlns="http://www.w3.org/2000/svg" width="64" height="71.529" viewBox="0 0 64 71.529">
  <g id="Group_3026" data-name="Group 3026" transform="translate(-1321 -3160)">
    <path id="Path_3815" data-name="Path 3815" d="M208,321.412A9.412,9.412,0,0,1,217.412,312h.723a9.408,9.408,0,0,1,2.283.28l.111.028a52.706,52.706,0,0,0,12.783,1.574h5.847a52.706,52.706,0,0,0,12.783-1.574l.111-.028a9.408,9.408,0,0,1,2.283-.28h.723a9.412,9.412,0,1,1,0,18.824h-.723a9.409,9.409,0,0,1-2.283-.28l-.111-.028a52.706,52.706,0,0,0-12.783-1.574h-5.847a52.706,52.706,0,0,0-12.783,1.574l-.111.028a9.409,9.409,0,0,1-2.283.28h-.723A9.412,9.412,0,0,1,208,321.412Z" transform="translate(1116.765 2883.765)" fill="#ff8fa7"/>
    <path id="Path_3818" data-name="Path 3818" d="M192,384h64v7.529H192Z" transform="translate(1129 2828.706)" fill="#3fdbe1"/>
    <path id="Path_3819" data-name="Path 3819" d="M208,416a11.294,11.294,0,0,0,11.294,11.294h33.882A11.294,11.294,0,0,0,264.471,416H208Z" transform="translate(1116.765 2804.235)" fill="#1592e6"/>
    <path id="Path_3820" data-name="Path 3820" d="M265.412,176h0a9.412,9.412,0,0,1,9.412,9.412h0a9.412,9.412,0,0,1-9.412,9.412h0A9.412,9.412,0,0,1,256,185.412h0A9.412,9.412,0,0,1,265.412,176Z" transform="translate(1080.059 2987.765)" fill="#e6e6e6"/>
    <path id="Path_3821" data-name="Path 3821" d="M365.647,232h0a5.647,5.647,0,0,1,5.647,5.647h0a5.647,5.647,0,0,1-5.647,5.647h0A5.647,5.647,0,0,1,360,237.647h0A5.647,5.647,0,0,1,365.647,232Z" transform="translate(1000.529 2944.941)" fill="#ccc"/>
    <path id="Path_3822" data-name="Path 3822" d="M371.765,160h0a3.765,3.765,0,0,1,3.765,3.765h0a3.765,3.765,0,0,1-3.765,3.765h0A3.765,3.765,0,0,1,368,163.765h0A3.765,3.765,0,0,1,371.765,160Z" transform="translate(994.412 3000)" fill="#f2f2f2"/>
  </g>
</svg>
