<svg xmlns="http://www.w3.org/2000/svg" width="176.548" height="86.826" viewBox="0 0 176.548 86.826">
  <g id="Group_1985" data-name="Group 1985" transform="translate(-1737 225)">
    <path id="Path_3279" data-name="Path 3279" d="M102.527,86.809a1.237,1.237,0,0,1-.23-.014,2.715,2.715,0,0,1-2.435-2.232L88.172,17.836,75.59,84.6a2.708,2.708,0,0,1-5.277.2L56.432,33.124,47.624,64.607a2.711,2.711,0,0,1-2.611,1.975H2.706a2.706,2.706,0,1,1,0-5.412H42.97L53.888,22.151a2.707,2.707,0,0,1,2.6-1.975H56.5a2.692,2.692,0,0,1,2.6,2L72.464,71.94,85.615,2.2A2.709,2.709,0,0,1,88.267-.01h.014a2.709,2.709,0,0,1,2.652,2.232l12.5,71.355,9.011-25.043a2.716,2.716,0,0,1,2.544-1.786h58.854a2.706,2.706,0,0,1,0,5.412H116.9L105.071,85.023A2.7,2.7,0,0,1,102.527,86.809Z" transform="translate(1737 -224.99)" fill="#050505" opacity="0.02"/>
    <g id="Group_1975" data-name="Group 1975" transform="translate(647 -267.409)">
      <path id="Path_3303" data-name="Path 3303" d="M42.293,49.873V38.109H27.513V49.873l-8.9,6.822a4.557,4.557,0,0,0-1.784,3.616V97.729a4.378,4.378,0,0,0,4.378,4.378H48.6a4.378,4.378,0,0,0,4.378-4.378V60.311a4.557,4.557,0,0,0-1.784-3.616Z" transform="translate(1135.168 16.862)" fill="#bbe2f7"/>
      <path id="Path_3266" data-name="Path 3266" d="M49.426,199.58H35.459a4.839,4.839,0,0,0-4.839,4.839v10.4a4.839,4.839,0,0,0,4.839,4.839H49.424a4.839,4.839,0,0,0,4.839-4.839v-10.4A4.837,4.837,0,0,0,49.426,199.58Zm-1.731,10.49a1.338,1.338,0,0,1-1.338,1.338H44.229v2.127a1.34,1.34,0,0,1-1.338,1.34H42a1.34,1.34,0,0,1-1.34-1.34v-2.127H38.528a1.338,1.338,0,0,1-1.338-1.338v-.9a1.338,1.338,0,0,1,1.338-1.338h2.125v-2.125a1.34,1.34,0,0,1,1.34-1.34h.9a1.338,1.338,0,0,1,1.338,1.34v2.125h2.127a1.338,1.338,0,0,1,1.338,1.338l0,.9Z" transform="translate(1127.433 -114.253)" fill="#e74424"/>
      <path id="Path_3267" data-name="Path 3267" d="M79.1,231.705H76.978V229.58a1.34,1.34,0,0,0-1.338-1.34h-.894a1.34,1.34,0,0,0-1.34,1.34v2.125H71.278a1.338,1.338,0,0,0-1.338,1.338v.9a1.338,1.338,0,0,0,1.338,1.338H73.4V237.4a1.34,1.34,0,0,0,1.34,1.34h.9a1.338,1.338,0,0,0,1.338-1.34v-2.127H79.1a1.338,1.338,0,0,0,1.338-1.338v-.894A1.337,1.337,0,0,0,79.1,231.705Z" transform="translate(1094.683 -138.124)" fill="#bbe2f7"/>
      <path id="Path_3307" data-name="Path 3307" d="M88.886,13.032H75.2a2.016,2.016,0,0,1-1.808-2.173V2.173A2.016,2.016,0,0,1,75.2,0H88.886a2.016,2.016,0,0,1,1.808,2.173v8.687A2.016,2.016,0,0,1,88.886,13.032Z" transform="translate(1087.979 51.676)" fill="#2c5871"/>
      <g id="Group_1973" data-name="Group 1973" transform="translate(1190.738 103.694)">
        <path id="Path_3299" data-name="Path 3299" d="M330.332,339.013h-7.618a1.531,1.531,0,0,1-1.531-1.28l-2-13.249a.572.572,0,0,1,.579-.647H333.28a.572.572,0,0,1,.579.647l-2,13.249A1.531,1.531,0,0,1,330.332,339.013Z" transform="translate(-319.18 -323.837)" fill="#e1effb"/>
        <path id="Path_3301" data-name="Path 3301" d="M324.059,364.847l1.6,10.954a1.547,1.547,0,0,0,1.531,1.324H334.8a1.547,1.547,0,0,0,1.531-1.324l1.6-10.954Z" transform="translate(-323.652 -361.949)" fill="#a17272"/>
      </g>
    </g>
  </g>
</svg>
